
****************************************************************************************************
                          _____                                 _____ _____ _____                
_______ _____ ____  __    __  /_______________ ________ ___________(_)__  /____(_)______ _______ 
__  __ \_  _ \__  |/_/    _  __/__  ___/_  __ `/__  __ \__  ___/__  / _  __/__  / _  __ \__  __ \
_  / / //  __/__>  <  ___ / /_  _  /    / /_/ / _  / / /_(__  ) _  /  / /_  _  /  / /_/ /_  / / /
/_/ /_/ \___/ /_/|_|  _(_)\__/  /_/     \__,_/  /_/ /_/ /____/  /_/   \__/  /_/   \____/ /_/ /_/ 
                                                                                                 
                                           
===================================================================================================
	Application Name         : nex.transition 
	Spring Boot Version      : v2.0.3.RELEASE
	Created By               : RAMMOHAN GUDDITI
===================================================================================================


